<?xml version="1.0" encoding="UTF-8" standalone="no"?>
<svg width="617px" height="617px" viewBox="0 0 617 617" version="1.1" xmlns="http://www.w3.org/2000/svg" xmlns:xlink="http://www.w3.org/1999/xlink">
    <!-- Generator: Sketch 3.8.1 (29687) - http://www.bohemiancoding.com/sketch -->
    <title>Slice 1</title>
    <desc>Created with Sketch.</desc>
    <defs></defs>
    <g id="Page-1" stroke="none" stroke-width="1" fill="none" fill-rule="evenodd">
        <g id="Group">
            <path d="M308.5,617 C478.879845,617 617,478.879845 617,308.5 C617,138.120155 478.879845,0 308.5,0 C138.120155,0 0,138.120155 0,308.5 C0,478.879845 138.120155,617 308.5,617 Z M124,165.007012 C124,160.584861 127.584386,157 131.994102,157 L210.005898,157 C214.420919,157 218,160.587199 218,165.007012 L218,451.992988 C218,456.415139 214.415614,460 210.005898,460 L131.994102,460 C127.579081,460 124,456.412801 124,451.992988 L124,165.007012 Z M262,165.007012 C262,160.584861 265.584386,157 269.994102,157 L348.005898,157 C352.420919,157 356,160.587199 356,165.007012 L356,451.992988 C356,456.415139 352.415614,460 348.005898,460 L269.994102,460 C265.579081,460 262,456.412801 262,451.992988 L262,165.007012 Z M400,165.007012 C400,160.584861 403.584386,157 407.994102,157 L486.005898,157 C490.420919,157 494,160.587199 494,165.007012 L494,451.992988 C494,456.415139 490.415614,460 486.005898,460 L407.994102,460 C403.579081,460 400,456.412801 400,451.992988 L400,165.007012 Z" id="Combined-Shape" fill="#4990E2"></path>
            <g id="Group-2" transform="translate(124.000000, 157.000000)"></g>
        </g>
    </g>
</svg>